{
    "versionCode": "140108",
    "quicklinks":[
        {
            "title":"Google",
            "url":"http://www.google.com.sg/",
            "thumbnail":"thumb_google.png",
            "logobg":"thumb_google_bg.9.png",
            "nightModeMask": "night.9.png",
            "favicon":"",
            "displayName": "Google",
            "isDelete": true,
            "movable": true,
            "position": 0
        },
        {
            "title":"Facebook",
            "url":"http://www.facebook.com",
            "thumbnail":"thumb_facebook.png",
            "logobg":"thumb_facebook_bg.9.png",
            "nightModeMask": "night.9.png",
            "favicon":"",
            "displayName": "Facebook",
            "isDelete": true,
            "movable": true,
            "position": 1
        },
        {
            "title":"YouTube",
            "url":"http://www.youtube.com/",
            "thumbnail":"thumb_youtube.png",
            "logobg":"thumb_youtube_bg.9.png",
            "nightModeMask": "night.9.png",
            "favicon":"",
            "displayName": "YouTube",
            "isDelete": true,
            "movable": true,
            "position": 2
        },
        {
            "title":"Yahoo",
            "url":"http://www.yahoo.com",
            "thumbnail":"thumb_yahoo.png",
            "logobg":"thumb_yahoo_bg.9.png",
            "nightModeMask": "night.9.png",
            "favicon":"",
            "displayName": "Yahoo",
            "isDelete": true,
            "movable": true,
            "position": 3
        },
        {
            "title":"Twitter",
            "url":"http://www.twitter.com/",
            "thumbnail":"thumb_twitter.png",
            "logobg":"thumb_twitter_bg.9.png",
            "nightModeMask": "night.9.png",
            "favicon":"",
            "displayName": "Twitter",
            "isDelete": true,
            "movable": true,
            "position": 4
        },
        {
            "title":" Wikipedia",
            "url":"http://www.wikipedia.org",
            "thumbnail":"thumb_wikipedia.png",
            "logobg":"thumb_wikipedia_bg.9.png",
            "nightModeMask": "night.9.png",
            "favicon":"",
            "displayName": "Wikipedia",
            "isDelete": true,
            "movable": true,
            "position": 5
        },

        {
            "title":"Linkedin",
            "url":"http://www.linkedin.com/",
            "thumbnail":"thumb_linkedin.png",
            "logobg":"thumb_linkedin_bg.9.png",
            "nightModeMask": "night.9.png",
            "favicon":"",
            "displayName": "Linkedin",
            "isDelete": true,
            "movable": true,
            "position": 6
        },
        {
            "title":"Amazon",
            "url":"http://www.amazon.com",
            "thumbnail":"thumb_amazon.png",
            "logobg":"thumb_amazon_bg.9.png",
            "nightModeMask": "night.9.png",
            "favicon":"",
            "displayName": "Amazon",
            "isDelete": true,
            "movable": true,
            "position": 7
        },
        {
            "title":"Qoo100",
            "url":"http://qoo100.sg",
            "thumbnail":"thumb_qoo100.png",
            "logobg":"thumb_qoo100_bg.9.png",
            "nightModeMask": "night.9.png",
            "favicon":"",
            "displayName": "Qoo100",
            "isDelete": true,
            "movable": true,
            "position": 8
        },
        {
            "title":"MIUI",
            "url":"http://en.miui.com",
            "thumbnail":"thumb_miui.png",
            "logobg":"thumb_miui_bg.9.png",
            "nightModeMask": "night.9.png",
            "favicon":"",
            "displayName": "MIUI",
            "isDelete": true,
            "movable": true,
            "position": 9
        },
        {
            "title":"STOMP",
            "url":"http://stomp.com.sg",
            "thumbnail":"thumb_stomp.png",
            "logobg":"thumb_stomp_bg.9.png",
            "nightModeMask": "night.9.png",
            "favicon":"",
            "displayName": "STOMP",
            "isDelete": true,
            "movable": true,
            "position": 10
        },
        {
            "title":"StraitsTimes",
            "url":"http://straitstimes.com",
            "thumbnail":"thumb_straitstimes.png",
            "logobg":"thumb_straitstimes_bg.9.png",
            "nightModeMask": "night.9.png",
            "favicon":"",
            "displayName": "StraitsTimes",
            "isDelete": true,
            "movable": true,
            "position": 11
        }
    ],
    "topquicklinks": [
                {
            "title":"Google",
            "url":"http://www.google.com.sg/",
            "thumbnail":"thumb_google.png",
            "logobg":"thumb_google_bg.9.png",
            "nightModeMask": "night.9.png",
            "favicon":"",
            "displayName": "Google"
        },
        {
            "title":"Facebook",
            "url":"http://www.facebook.com",
            "thumbnail":"thumb_facebook.png",
            "logobg":"thumb_facebook_bg.9.png",
            "nightModeMask": "night.9.png",
            "favicon":"",
            "displayName": "Facebook"
        },
        {
            "title":"YouTube",
            "url":"http://www.youtube.com/",
            "thumbnail":"thumb_youtube.png",
            "logobg":"thumb_youtube_bg.9.png",
            "nightModeMask": "night.9.png",
            "favicon":"",
            "displayName": "YouTube"
        },
        {
            "title":"Yahooo",
            "url":"http://www.yahoo.com",
            "thumbnail":"thumb_yahoo.png",
            "logobg":"thumb_yahoo_bg.9.png",
            "nightModeMask": "night.9.png",
            "favicon":"",
            "displayName": "Yahoo"
        },
        {
            "title":"Twitter",
            "url":"http://www.twitter.com/",
            "thumbnail":"thumb_twitter.png",
            "logobg":"thumb_twitter_bg.9.png",
            "nightModeMask": "night.9.png",
            "favicon":"",
            "displayName": "Twitter"
        },
        {
            "title":" Wikipedia",
            "url":"http://www.wikipedia.org",
            "thumbnail":"thumb_wikipedia.png",
            "logobg":"thumb_wikipedia_bg.9.png",
            "nightModeMask": "night.9.png",
            "favicon":"",
            "displayName": "Wikipedia"
        },

        {
            "title":"Linkedin",
            "url":"http://www.linkedin.com/",
            "thumbnail":"thumb_linkedin.png",
            "logobg":"thumb_linkedin_bg.9.png",
            "nightModeMask": "night.9.png",
            "favicon":"",
            "displayName": "Linkedin"
        },
        {
            "title":"Amazon",
            "url":"http://www.amazon.com",
            "thumbnail":"thumb_amazon.png",
            "logobg":"thumb_amazon_bg.9.png",
            "nightModeMask": "night.9.png",
            "favicon":"",
            "displayName": "Amazon"
        },
        {
            "title":"Qoo100",
            "url":"http://qoo100.sg",
            "thumbnail":"thumb_qoo100.png",
            "logobg":"thumb_qoo100_bg.9.png",
            "nightModeMask": "night.9.png",
            "favicon":"",
            "displayName": "Qoo100"
        },
        {
            "title":"MIUI",
            "url":"http://en.miui.com",
            "thumbnail":"thumb_miui.png",
            "logobg":"thumb_miui_bg.9.png",
            "nightModeMask": "night.9.png",
            "favicon":"",
            "displayName": "MIUI"
        },
        {
            "title":"STOMP",
            "url":"http://stomp.com.sg",
            "thumbnail":"thumb_stomp.png",
            "logobg":"thumb_stomp_bg.9.png",
            "nightModeMask": "night.9.png",
            "favicon":"",
            "displayName": "STOMP"
        },
        {
            "title":"StraitsTimes",
            "url":"http://straitstimes.com",
            "thumbnail":"thumb_straitstimes.png",
            "logobg":"thumb_straitstimes_bg.9.png",
            "nightModeMask": "night.9.png",
            "favicon":"",
            "displayName": "StraitsTimes"
        }
    ]
}

